{
    "title": "First Team",
    "list": [
        {
            "name": "Player Name",
            "firstName": "Player",
            "lastName": "Name",
            "position": "Position",
            "number": "",
            "className": "",
            "about": "Player Description, with a story and ending. Testing some descriptive text",
            "imgPath": ""
        },
        {
            "name": "Player Name",
            "firstName": "Player",
            "lastName": "Name",
            "position": "Position",
            "number": "",
            "className": "",
            "about": "Player Description, with a story and ending. Testing some descriptive text",
            "imgPath": ""
        },
        {
            "name": "Player Name",
            "firstName": "Player",
            "lastName": "Name",
            "position": "Position",
            "number": "",
            "className": "",
            "about": "Player Description, with a story and ending. Testing some descriptive text",
            "imgPath": ""
        },
        {
            "name": "Player Name",
            "firstName": "Player",
            "lastName": "Name",
            "position": "Position",
            "number": "",
            "className": "",
            "about": "Player Description, with a story and ending. Testing some descriptive text",
            "imgPath": ""
        },
        {
            "name": "Player Name",
            "firstName": "Player",
            "lastName": "Name",
            "position": "Position",
            "number": "",
            "className": "",
            "about": "Player Description, with a story and ending. Testing some descriptive text",
            "imgPath": ""
        },
        {
            "name": "Player Name",
            "firstName": "Player",
            "lastName": "Name",
            "position": "Position",
            "number": "",
            "className": "",
            "about": "Player Description, with a story and ending. Testing some descriptive text",
            "imgPath": ""
        },
        {
            "name": "Player Name",
            "firstName": "Player",
            "lastName": "Name",
            "position": "Position",
            "number": "",
            "className": "",
            "about": "Player Description, with a story and ending. Testing some descriptive text",
            "imgPath": ""
        }
    ]
}