{
    "title": "First Team",
    "list": [
        {
            "name": "Player Name",
            "firstName": "Andre",
            "lastName": "Gayraud",
            "position": "Position",
            "number": "",
            "className": "",
            "about": "Player Description, with a story and ending. Testing some descriptive text",
            "imgFile": "andre.jpg"
        },
        {
            "name": "Player Name",
            "firstName": "Andrew",
            "lastName": "Dickler",
            "position": "Position",
            "number": "",
            "className": "",
            "about": "Player Description, with a story and ending. Testing some descriptive text",
            "imgFile": "andrew.jpg"
        },
        {
            "name": "Player Name",
            "firstName": "Deepak",
            "lastName": "Mangwani",
            "position": "Position",
            "number": "",
            "className": "",
            "about": "Player Description, with a story and ending. Testing some descriptive text",
            "imgFile": "deepak.jpg"
        },
        {
            "name": "Player Name",
            "firstName": "James",
            "lastName": "Mercer",
            "position": "Position",
            "number": "",
            "className": "",
            "about": "Player Description, with a story and ending. Testing some descriptive text",
            "imgFile": "james.jpg"
        },
        {
            "name": "Player Name",
            "firstName": "Jamie",
            "lastName": "Davies",
            "position": "Position",
            "number": "",
            "className": "",
            "about": "Player Description, with a story and ending. Testing some descriptive text",
            "imgFile": ""
        },
        {
            "name": "Player Name",
            "firstName": "Jeremy",
            "lastName": "Rampon",
            "position": "Position",
            "number": "",
            "className": "",
            "about": "Player Description, with a story and ending. Testing some descriptive text",
            "imgFile": "jeremy.jpg"
        },
        {
            "name": "Player Name",
            "firstName": "Jesse",
            "lastName": "Rose",
            "position": "Position",
            "number": "",
            "className": "",
            "about": "Player Description, with a story and ending. Testing some descriptive text",
            "imgFile": "jesse.jpg"
        },
                {
            "firstName": "Karim",
            "lastName": "Zouhal",
            "position": "Position",
            "number": "",
            "className": "",
            "about": "Player Description, with a story and ending. Testing some descriptive text",
            "imgFile": ""
        },
        {
            "firstName": "Neima",
            "lastName": "Hajari",
            "position": "Position",
            "number": "",
            "className": "",
            "about": "Player Description, with a story and ending. Testing some descriptive text",
            "imgFile": ""
        },
        {
            "firstName": "Nicholas",
            "lastName": "Nebot",
            "position": "Position",
            "number": "",
            "className": "",
            "about": "Player Description, with a story and ending. Testing some descriptive text",
            "imgFile": "nick.jpg"
        },
        {
            "firstName": "Paul",
            "lastName": "Nitto",
            "position": "Position",
            "number": "",
            "className": "",
            "about": "Player Description, with a story and ending. Testing some descriptive text",
            "imgFile": "paul.jpg"
        },
        {
            "firstName": "Sergio",
            "lastName": "Gomez",
            "position": "Position",
            "number": "",
            "className": "",
            "about": "Player Description, with a story and ending. Testing some descriptive text",
            "imgFile": "sergio.jpg"
        },
        {
            "firstName": "Sonny",
            "lastName": "Henderson",
            "position": "Position",
            "number": "",
            "className": "",
            "about": "Player Description, with a story and ending. Testing some descriptive text",
            "imgFile": "sonny.jpg"
        },
        {
            "firstName": "Staffan",
            "lastName": "Alm",
            "position": "Position",
            "number": "",
            "className": "",
            "about": "Player Description, with a story and ending. Testing some descriptive text",
            "imgFile": "staffan.jpg"
        },
        {
            "firstName": "Vinnie",
            "lastName": "Butera",
            "position": "Position",
            "number": "",
            "className": "",
            "about": "Player Description, with a story and ending. Testing some descriptive text",
            "imgFile": ""
        },
        {
            "firstName": "Zachary",
            "lastName": "Kady",
            "position": "Position",
            "number": "",
            "className": "",
            "about": "Player Description, with a story and ending. Testing some descriptive text",
            "imgFile": ""
        }
    ]
}