{
    "title": "Metro Team",
    "list":[
		{
		    "firstName": "Aaron",
		    "lastName": "Gomes",
		    "position": "Position",
		    "number": "",
		    "className": "",
		    "about": "Player Description, with a story and ending. Testing some descriptive text",
		    "imgFile": "andre.jpg"
		},
		{
		    "firstName": "Ali",
		    "lastName": "Reza",
		    "position": "Position",
		    "number": "",
		    "className": "",
		    "about": "Player Description, with a story and ending. Testing some descriptive text",
		    "imgFile": "ali.jpg"
		},
		{
		    "firstName": "Anish",
		    "lastName": "Malpani",
		    "position": "Position",
		    "number": "",
		    "className": "",
		    "about": "Player Description, with a story and ending. Testing some descriptive text",
		    "imgFile": "andre.jpg"
		},
		{
		    "firstName": "Christian",
		    "lastName": "Baroni",
		    "position": "Position",
		    "number": "",
		    "className": "",
		    "about": "Player Description, with a story and ending. Testing some descriptive text",
		    "imgFile": "andre.jpg"
		},
		{
		    "firstName": "Glen",
		    "lastName": "Mitas",
		    "position": "Position",
		    "number": "",
		    "className": "",
		    "about": "Player Description, with a story and ending. Testing some descriptive text",
		    "imgFile": "andre.jpg"
		},
		{
		    "firstName": "Ishaan",
		    "lastName": "Pujari",
		    "position": "Position",
		    "number": "",
		    "className": "",
		    "about": "Player Description, with a story and ending. Testing some descriptive text",
		    "imgFile": "andre.jpg"
		},
		{
		    "firstName": "Jonathan",
		    "lastName": "Graneros",
		    "position": "Position",
		    "number": "",
		    "className": "",
		    "about": "Player Description, with a story and ending. Testing some descriptive text",
		    "imgFile": "andre.jpg"
		},
		{
		    "firstName": "Kai",
		    "lastName": "Kunitomo",
		    "position": "Position",
		    "number": "",
		    "className": "",
		    "about": "Player Description, with a story and ending. Testing some descriptive text",
		    "imgFile": "kai.jpg"
		},
		{
		    "firstName": "Larry",
		    "lastName": "Debono",
		    "position": "Position",
		    "number": "",
		    "className": "",
		    "about": "Player Description, with a story and ending. Testing some descriptive text",
		    "imgFile": "larry.jpg"
		},
		{
		    "firstName": "Masanori",
		    "lastName": "Nakano",
		    "position": "Position",
		    "number": "",
		    "className": "",
		    "about": "Player Description, with a story and ending. Testing some descriptive text",
		    "imgFile": "andre.jpg"
		},
		{
		    "firstName": "Mirul",
		    "lastName": "Azmi",
		    "position": "Position",
		    "number": "",
		    "className": "",
		    "about": "Player Description, with a story and ending. Testing some descriptive text",
		    "imgFile": "andre.jpg"
		},
		{
		    "firstName": "Navrun",
		    "lastName": "Jacob",
		    "position": "Position",
		    "number": "",
		    "className": "",
		    "about": "Player Description, with a story and ending. Testing some descriptive text",
		    "imgFile": "andre.jpg"
		},
		{
		    "firstName": "Nikhil",
		    "lastName": "Jain",
		    "position": "Position",
		    "number": "",
		    "className": "",
		    "about": "Player Description, with a story and ending. Testing some descriptive text",
		    "imgFile": "Nik.jpg"
		},
		{
		    "firstName": "Nikhil",
		    "lastName": "Ledlie",
		    "position": "Position",
		    "number": "",
		    "className": "",
		    "about": "Player Description, with a story and ending. Testing some descriptive text",
		    "imgFile": "andre.jpg"
		},
		{
		    "firstName": "Roberto",
		    "lastName": "Churunel",
		    "position": "Position",
		    "number": "",
		    "className": "",
		    "about": "Player Description, with a story and ending. Testing some descriptive text",
		    "imgFile": "roberto.jpg"
		},
		{
		    "firstName": "Sadou",
		    "lastName": "Barry",
		    "position": "Position",
		    "number": "",
		    "className": "",
		    "about": "Player Description, with a story and ending. Testing some descriptive text",
		    "imgFile": "andre.jpg"
		},
		{
		    "firstName": "Samuel",
		    "lastName": "Gozlan",
		    "position": "Position",
		    "number": "",
		    "className": "",
		    "about": "Player Description, with a story and ending. Testing some descriptive text",
		    "imgFile": "sam.jpg"
		},

		{
		    "firstName": "Varun",
		    "lastName": "Rangaraj",
		    "position": "Position",
		    "number": "",
		    "className": "",
		    "about": "Player Description, with a story and ending. Testing some descriptive text",
		    "imgFile": "andre.jpg"
		},
		{
		    "firstName": "Walter",
		    "lastName": "Lamberson",
		    "position": "Position",
		    "number": "",
		    "className": "",
		    "about": "Player Description, with a story and ending. Testing some descriptive text",
		    "imgFile": "andre.jpg"
		}
	]
}